{
  "contact": {
    "name": "Axel Anderson",
    "website": "https://honkytonk.in",
    "email": "axel@ftml.net",
    "github": "https://github.com/axelav",
    "location": "Brooklyn, NY"
  },
  "education": {
    "start_date": "2001-08-01",
    "end_date": "2006-05-01",
    "institution": {
      "name": "University of Florida",
      "location": "Gainesville, FL"
    },
    "description": "Bachelors of Arts, English"
  },
  "work": [
    {
      "start_date": "2006-05-01",
      "end_date": "2007-09-01",
      "position": "Editor",
      "company": {
        "name": "Flavorpill",
        "location": "New York, NY"
      },
      "description": "Write and edit for weekly events and arts publications.",
      "technologies": []
    },
    {
      "start_date": "2007-10-01",
      "end_date": "2009-10-01",
      "position": "Product Manager",
      "company": {
        "name": "Flavorpill",
        "location": "New York, NY"
      },
      "description": "Manage daily email delivery and oversee development of new publications.",
      "technologies": ["Wordpress", "jQuery"]
    },
    {
      "start_date": "2009-07-01",
      "end_date": "2011-04-01",
      "position": "Web Developer",
      "company": {
        "name": "Freelance",
        "location": "Brooklyn, NY"
      },
      "description": "Develop websites for small businesses, artists, musicians, and galleries.",
      "technologies": ["Wordpress", "Drupal", "jQuery", "Backbone"]
    },
    {
      "start_date": "2010-04-01",
      "end_date": "2010-09-01",
      "position": "Web Developer",
      "company": {
        "name": "Xylem Digital",
        "location": "Denver, CO"
      },
      "description": "Develop websites for regional and national clients.",
      "technologies": ["Wordpress", "jQuery"]
    },
    {
      "start_date": "2011-04-01",
      "end_date": "2013-08-01",
      "position": "Web Developer",
      "company": {
        "name": "Buddy Media / Salesforce",
        "location": "New York, NY"
      },
      "description": "Develop websites for global brands.",
      "technologies": ["jQuery", "Backbone"]
    },
    {
      "start_date": "2013-04-01",
      "end_date": "2014-01-01",
      "position": "Mentor",
      "company": {
        "name": "Thinkful",
        "location": "New York, NY"
      },
      "description": "Teach front-end web development.",
      "technologies": ["JavaScript", "HTML", "CSS"]
    },
    {
      "start_date": "2013-09-01",
      "end_date": "2015-07-17",
      "position": "Software Engineer",
      "company": {
        "name": "Propellr",
        "location": "New York, NY"
      },
      "description": "Build data-rich web applications for real estate investors and lenders.",
      "technologies": ["Angular", "Jasmine", "Less", "Grunt", "D3"]
    },
    {
      "start_date": "2015-07-20",
      "end_date": "2016-12-16",
      "position": "Software Engineer",
      "company": {
        "name": "Eyeview",
        "location": "New York, NY"
      },
      "description": "Build web applications and APIs that allow brands to manage targeted, complex video advertising campaigns across multiple channels.",
      "technologies": [
        "Angular",
        "Jasmine",
        "Protractor",
        "MongoDB",
        "Java",
        "Sass",
        "Grunt",
        "AWS"
      ]
    },
    {
      "start_date": "2016-12-19",
      "end_date": "2018-01-09",
      "position": "Software Engineer",
      "company": {
        "name": "The Daily Beast",
        "location": "New York, NY"
      },
      "description": "Build web applications, APIs, and microservices that handle millions of requests per day and UIs that allow a global editorial team to collaborate effectively.",
      "technologies": [
        "Express",
        "React",
        "PostgreSQL",
        "ElasticSearch",
        "Ava",
        "Sass",
        "AWS",
        "Webpack",
        "Docker",
        "GraphQL",
        "Node.js"
      ]
    },
    {
      "start_date": "2018-01-15",
      "end_date": "",
      "position": "Software Engineer",
      "company": {
        "name": "Pillar Technologies",
        "location": "New York, NY"
      },
      "description": "Build client- and admin-facing web applications with React, APIs with Flask, and a cross-platform native app with React Native. Our applications provide real-time environmental monitoring of construction jobsites and alert team members of anomalies before they become problems.",
      "technologies": [
        "D3",
        "Docker",
        "Express",
        "Flask",
        "Jest",
        "Kubernetes",
        "Leaflet",
        "PostgreSQL",
        "React Native",
        "React",
        "Serverless",
        "Webpack",
        "Node.js"
      ]
    }
  ],
  "projects": [
    {
      "title": "textnot.es",
      "url": "https://textnot.es",
      "description": "",
      "technologies": ["Express", "LevelDB", "Choo", "Tachyons"]
    }
  ],
  "skills": [
    "High-quality JavaScript development",
    "Modular, scalable, testable, and reusable code",
    "Experienced building polished and performant component-based applications"
  ],
  "interests": [
    {
      "name": "bicycling"
    },
    {
      "name": "forests"
    },
    {
      "name": "Honda XR",
      "url": "https://en.wikipedia.org/wiki/Honda_XR_series"
    },
    {
      "name": "hiking"
    },
    {
      "name": "mapping and navigation"
    },
    {
      "name": "Mercedes-Benz W123",
      "url": "https://en.wikipedia.org/wiki/Mercedes-Benz_W123"
    },
    {
      "name": "motorcycling"
    },
    {
      "name": "mountains"
    },
    {
      "name": "deserts"
    },
    {
      "name": "Neil Young",
      "url": "http://hyperrust.org"
    },
    {
      "name": "Grand Staircase-Escalante",
      "url": "https://en.wikipedia.org/wiki/Grand_Staircase-Escalante_National_Monument"
    },
    {
      "name": "Ursula Le Guin",
      "url": "https://www.fifthestate.org/archive/382-spring-2010/non-euclidean-view-california-cold-place-1982/"
    },
    {
      "name": "John McPhee",
      "url": "https://www.newyorker.com/contributors/john-mcphee"
    },
    {
      "name": "Thomas Pynchon",
      "url": "https://i.kinja-img.com/gawker-media/image/upload/s--I1mtd-EK--/c_scale,fl_progressive,q_80,w_800/scn3hct9dwk5ib0yrrii.jpg"
    },
    {
      "name": "Edward Abbey",
      "url": "https://www.youtube.com/watch?v=jOgEs1OZkXg"
    },
    {
      "name": "vim",
      "url": "https://www.vim.org"
    },
    {
      "name": "Lubbock (On Everything)",
      "url": "https://www.youtube.com/watch?v=mRc-X6RO05U&list=PLGLGDT-9ZI4J3YSnS3ivDDr8Rx7wvrVbW"
    },
    {
      "name": "KTM 690 Enduro",
      "url": "https://en.wikipedia.org/wiki/KTM_690_Enduro"
    },
    {
      "name": "ECEA Enduro",
      "url": "http://www.ecea.org/ecea/index.php"
    },
    {
      "name": "Trans America Trail",
      "url": "https://honkytonk.in/places/trans-america-trail"
    },
    {
      "name": "Grateful Dead",
      "url": "https://archive.org/details/gd1972-05-26.sbd.waddell.89641.sbeok.flac16"
    },
    {
      "name": "canyons"
    },
    {
      "name": "decentralization"
    },
    {
      "name": "New Jersey Pine Barrens",
      "url": "https://en.wikipedia.org/wiki/Pine_Barrens_(New_Jersey)"
    },
    {
      "name": "KTM 300",
      "url": "https://en.m.wikipedia.org/wiki/KTM_300"
    }
  ]
}
